{

    "name":"ga_opt_0", 
    "pingIntervalMs": "1000",
    "pollIntervalMs": "1000",
    "entrypoint": "python ./ga_opt.py",
    
    "attributes":{
        "current_iter": "Promise( current_iter as useful_info from knolo )", 
        "n_chrom": "Promise( n_chrom as useful_info from knolo )", 
        "binary_str_len": "Promise( binary_str_len as useful_info from knolo )", 
        "checkpoint": "/radraid/apps/personal/wasil/knolo/checkpoint.ckpt",
        "ga_config": "/cvib2/apps/personal/wasil/lib/sm/sm_ga/agent/knolo/ga_example/optimizer.yaml"

        }

}
